[
  {
    "type": "tab",
    "id": "69b8a9ec.b68008",
    "label": "TTS"
  },
  {
    "id": "cda555a1.559208",
    "type": "http in",
    "z": "69b8a9ec.b68008",
    "name": "",
    "url": "/talk/sayit",
    "method": "get",
    "swaggerDoc": "",
    "x": 140,
    "y": 60,
    "wires": [
      [
        "4c46a5d9.8729fc"
      ]
    ]
  },
  {
    "id": "401c834b.26607c",
    "type": "change",
    "z": "69b8a9ec.b68008",
    "name": "text to payload",
    "rules": [
      {
        "t": "set",
        "p": "payload",
        "pt": "msg",
        "to": "payload.text_to_say",
        "tot": "msg"
      }
    ],
    "action": "",
    "property": "",
    "from": "",
    "to": "",
    "reg": false,
    "x": 375,
    "y": 61,
    "wires": [
      [
        "617a4521.a1b40c"
      ]
    ]
  },
  {
    "id": "617a4521.a1b40c",
    "type": "watson-text-to-speech",
    "z": "69b8a9ec.b68008",
    "name": "Watson TTS",
    "lang": "english",
    "voice": "en-US_AllisonVoice",
    "format": "audio/wav",
    "x": 563,
    "y": 60,
    "wires": [
      [
        "da5af111.fa242"
      ]
    ]
  },
  {
    "id": "da5af111.fa242",
    "type": "change",
    "z": "69b8a9ec.b68008",
    "name": "speech to payload",
    "rules": [
      {
        "t": "set",
        "p": "payload",
        "to": "msg.speech"
      }
    ],
    "action": "",
    "property": "",
    "from": "",
    "to": "",
    "reg": false,
    "x": 481,
    "y": 204,
    "wires": [
      [
        "4e81703c.1e1bd"
      ]
    ]
  },
  {
    "id": "35b60767.cb8668",
    "type": "http response",
    "z": "69b8a9ec.b68008",
    "name": "",
    "x": 666,
    "y": 339,
    "wires": []
  },
  {
    "id": "4c46a5d9.8729fc",
    "type": "switch",
    "z": "69b8a9ec.b68008",
    "name": "Check text",
    "property": "payload.text_to_say",
    "propertyType": "msg",
    "rules": [
      {
        "t": "nnull"
      },
      {
        "t": "else"
      }
    ],
    "checkall": "false",
    "outputs": 2,
    "x": 207,
    "y": 172,
    "wires": [
      [
        "401c834b.26607c"
      ],
      [
        "b709c1be.59fb2"
      ]
    ]
  },
  {
    "id": "b709c1be.59fb2",
    "type": "template",
    "z": "69b8a9ec.b68008",
    "name": "Error",
    "field": "payload",
    "fieldType": "msg",
    "format": "html",
    "syntax": "mustache",
    "template": "<h1>Missing text_to_say query param!</h1>",
    "x": 359,
    "y": 336,
    "wires": [
      [
        "35b60767.cb8668"
      ]
    ]
  },
  {
    "id": "4e81703c.1e1bd",
    "type": "function",
    "z": "69b8a9ec.b68008",
    "name": "Set headers",
    "func": "// Set the content type to audio wave\nmsg.headers={ 'Content-Type': 'audio/wav'};\nreturn msg;",
    "outputs": 1,
    "noerr": 0,
    "x": 695,
    "y": 203,
    "wires": [
      [
        "35b60767.cb8668"
      ]
    ]
  }
]